
***************** Port Verification: schedulef2.xml ********************

***************** Port Verification: schedulef3.xml ********************

***************** Port Verification: schedulefq.xml ********************

***************** Port Verification: schedulef.xml ********************
